[
	{
		"key": "awaitingApprovalOnEvp",
		"name": "Awaiting Approval On EVP",
		"name_i18n": {
			"en-US": "Awaiting Approval On EVP"
		},
		"type": "string"
	},
	{
		"key": "awaitingFinanceApproval",
		"name": "Awaiting Finance Approval",
		"name_i18n": {
			"en-US": "Awaiting Finance Approval"
		},
		"type": "string"
	},
	{
		"key": "rejected",
		"name": "Rejected",
		"name_i18n": {
			"en-US": "Rejected"
		},
		"type": "string"
	},
	{
		"key": "verified",
		"name": "Verified",
		"name_i18n": {
			"en-US": "Verified"
		},
		"type": "string"
	}
]