{
	"description": "Industry code",
	"description_i18n": {
		"en_US": "Industry code"
	},
	"externalReferenceCode": "RAYD2CVOC0001",
	"name": "Raylife Industry Type",
	"name_i18n": {
		"en_US": "Raylife Industry Type"
	},
	"viewableBy": "Anyone"
}