{
	"pageElement": {
		"pageElements": [
			{
				"definition": {
					"fragmentStyle": {
						"borderWidth": "0",
						"textAlign": ""
					},
					"indexed": true,
					"layout": {
						"borderWidth": 0,
						"marginBottom": 0,
						"marginLeft": 0,
						"marginRight": 0,
						"marginTop": 0,
						"paddingBottom": 0,
						"paddingLeft": 0,
						"paddingRight": 0,
						"paddingTop": 0,
						"widthType": "Fluid"
					}
				},
				"pageElements": [
					{
						"definition": {
							"fragment": {
								"key": "layout"
							},
							"fragmentConfig": {
								"layoutName": "Applications"
							},
							"fragmentFields": [
							],
							"indexed": true
						},
						"pageElements": [
							{
								"definition": {
								},
								"pageElements": [
									{
										"definition": {
											"widgetInstance": {
												"widgetConfig": {
													"properties": "route=notification-sidebar"
												},
												"widgetName": "[$CLIENT_EXTENSION_ENTRY_ID:RAYLIFEAGENTPORTAL$]"
											}
										},
										"type": "Widget"
									}
								],
								"type": "FragmentDropZone"
							},
							{
								"definition": {
								},
								"pageElements": [
									{
										"definition": {
											"fragment": {
												"key": "BASIC_COMPONENT-heading"
											},
											"fragmentConfig": {
												"headingLevel": "h3"
											},
											"fragmentFields": [
												{
													"id": "element-text",
													"value": {
														"fragmentLink": {
														},
														"text": {
															"value_i18n": {
																"en_US": "Applications"
															}
														}
													}
												}
											],
											"indexed": true
										},
										"type": "Fragment"
									}
								],
								"type": "FragmentDropZone"
							},
							{
								"pageElements": [
									{
										"definition": {
											"fragment": {
												"key": "plus-button"
											},
											"fragmentConfig": {
												"buttonName": "New Applications",
												"eventName": "Event"
											},
											"fragmentFields": [
											],
											"fragmentStyle": {
												"marginLeft": "3",
												"textAlign": ""
											},
											"indexed": true
										},
										"type": "Fragment"
									}
								],
								"type": "FragmentDropZone"
							},
							{
								"pageElements": [
									{
										"definition": {
											"fragment": {
												"key": "tabs"
											},
											"fragmentConfig": {
												"activeTab": 1,
												"quantityOfTabs": 4,
												"showTabCounter": false
											},
											"fragmentFields": [
												{
													"id": "tab-title-${i+1}",
													"value": {
														"fragmentLink": {
														}
													}
												},
												{
													"id": "tab-title-2",
													"value": {
														"fragmentLink": {
														},
														"text": {
															"value_i18n": {
																"en_US": "Unassigned (1)"
															}
														}
													}
												},
												{
													"id": "tab-title-1",
													"value": {
														"fragmentLink": {
														},
														"text": {
															"value_i18n": {
																"en_US": "Assigned to me (393)"
															}
														}
													}
												},
												{
													"id": "tab-title-4",
													"value": {
														"fragmentLink": {
														},
														"text": {
															"value_i18n": {
																"en_US": "Open (14)"
															}
														}
													}
												},
												{
													"id": "tab-title-3",
													"value": {
														"fragmentLink": {
														},
														"text": {
															"value_i18n": {
																"en_US": "Abandoned (4)"
															}
														}
													}
												}
											],
											"indexed": true
										},
										"pageElements": [
											{
												"pageElements": [
													{
														"definition": {
															"fragmentStyle": {
																"borderWidth": "0",
																"paddingBottom": "4",
																"paddingTop": "4",
																"textAlign": ""
															},
															"fragmentViewports": [
																{
																	"fragmentViewportStyle": {
																		"paddingLeft": "0",
																		"paddingRight": "0"
																	},
																	"id": "tablet"
																}
															],
															"indexed": true,
															"layout": {
																"align": "Center",
																"borderWidth": 0,
																"contentDisplay": "FlexColumn",
																"marginBottom": 0,
																"marginLeft": 0,
																"marginRight": 0,
																"marginTop": 0,
																"paddingBottom": 2,
																"paddingLeft": 0,
																"paddingRight": 0,
																"paddingTop": 2,
																"widthType": "Fluid"
															}
														},
														"pageElements": [
															{
																"definition": {
																	"fragmentStyle": {
																		"marginBottom": "4",
																		"maxWidth": "1500px",
																		"textAlign": "",
																		"width": "100%"
																	},
																	"gutters": true,
																	"indexed": true,
																	"modulesPerRow": 2,
																	"numberOfColumns": 2,
																	"reverseOrder": false,
																	"rowViewports": [
																		{
																			"id": "landscapeMobile",
																			"rowViewportDefinition": {
																				"modulesPerRow": 1
																			}
																		},
																		{
																			"id": "portraitMobile",
																			"rowViewportDefinition": {
																			}
																		},
																		{
																			"id": "tablet",
																			"rowViewportDefinition": {
																				"modulesPerRow": 1
																			}
																		}
																	],
																	"verticalAlignment": "top"
																},
																"pageElements": [
																	{
																		"definition": {
																			"columnViewports": [
																				{
																					"columnViewportDefinition": {
																						"size": 12
																					},
																					"id": "landscapeMobile"
																				},
																				{
																					"columnViewportDefinition": {
																					},
																					"id": "portraitMobile"
																				},
																				{
																					"columnViewportDefinition": {
																						"size": 12
																					},
																					"id": "tablet"
																				}
																			],
																			"size": 8
																		},
																		"pageElements": [
																			{
																				"definition": {
																					"fragmentViewports": [
																						{
																							"fragmentViewportStyle": {
																								"marginBottom": "4"
																							},
																							"id": "tablet"
																						}
																					],
																					"gutters": true,
																					"indexed": true,
																					"modulesPerRow": 2,
																					"numberOfColumns": 2,
																					"reverseOrder": false,
																					"rowViewports": [
																						{
																							"id": "landscapeMobile",
																							"rowViewportDefinition": {
																								"modulesPerRow": 1
																							}
																						},
																						{
																							"id": "portraitMobile",
																							"rowViewportDefinition": {
																							}
																						},
																						{
																							"id": "tablet",
																							"rowViewportDefinition": {
																							}
																						}
																					],
																					"verticalAlignment": "top"
																				},
																				"pageElements": [
																					{
																						"definition": {
																							"columnViewports": [
																								{
																									"columnViewportDefinition": {
																										"size": 12
																									},
																									"id": "landscapeMobile"
																								},
																								{
																									"columnViewportDefinition": {
																									},
																									"id": "portraitMobile"
																								},
																								{
																									"columnViewportDefinition": {
																									},
																									"id": "tablet"
																								}
																							],
																							"size": 6
																						},
																						"pageElements": [
																							{
																								"definition": {
																									"fragment": {
																										"key": "section"
																									},
																									"fragmentConfig": {
																										"sectionId": "primary"
																									},
																									"fragmentFields": [
																									],
																									"indexed": true
																								},
																								"pageElements": [
																									{
																										"pageElements": [
																											{
																												"definition": {
																													"fragment": {
																														"key": "applications-products"
																													},
																													"fragmentConfig": {
																														"textColor": ""
																													},
																													"fragmentFields": [
																													],
																													"fragmentViewports": [
																														{
																															"fragmentViewportStyle": {
																																"marginBottom": "4"
																															},
																															"id": "landscapeMobile"
																														}
																													],
																													"indexed": true
																												},
																												"type": "Fragment"
																											}
																										],
																										"type": "FragmentDropZone"
																									}
																								],
																								"type": "Fragment"
																							}
																						],
																						"type": "Column"
																					},
																					{
																						"definition": {
																							"columnViewports": [
																								{
																									"columnViewportDefinition": {
																										"size": 12
																									},
																									"id": "landscapeMobile"
																								},
																								{
																									"columnViewportDefinition": {
																									},
																									"id": "portraitMobile"
																								},
																								{
																									"columnViewportDefinition": {
																									},
																									"id": "tablet"
																								}
																							],
																							"size": 6
																						},
																						"pageElements": [
																							{
																								"definition": {
																									"fragment": {
																										"key": "section"
																									},
																									"fragmentConfig": {
																										"sectionId": "primary"
																									},
																									"fragmentFields": [
																									],
																									"indexed": true
																								},
																								"pageElements": [
																									{
																										"pageElements": [
																											{
																												"definition": {
																													"fragment": {
																														"key": "applications-status"
																													},
																													"fragmentConfig": {
																													},
																													"fragmentFields": [
																													],
																													"indexed": true
																												},
																												"type": "Fragment"
																											}
																										],
																										"type": "FragmentDropZone"
																									}
																								],
																								"type": "Fragment"
																							}
																						],
																						"type": "Column"
																					}
																				],
																				"type": "Row"
																			}
																		],
																		"type": "Column"
																	},
																	{
																		"definition": {
																			"columnViewports": [
																				{
																					"columnViewportDefinition": {
																						"size": 12
																					},
																					"id": "landscapeMobile"
																				},
																				{
																					"columnViewportDefinition": {
																					},
																					"id": "portraitMobile"
																				},
																				{
																					"columnViewportDefinition": {
																						"size": 12
																					},
																					"id": "tablet"
																				}
																			],
																			"size": 4
																		},
																		"pageElements": [
																			{
																				"definition": {
																					"fragment": {
																						"key": "section"
																					},
																					"fragmentConfig": {
																						"sectionId": "primary"
																					},
																					"fragmentFields": [
																					],
																					"indexed": true
																				},
																				"pageElements": [
																					{
																						"pageElements": [
																							{
																								"definition": {
																									"fragment": {
																										"key": "applications-new-submissions"
																									},
																									"fragmentConfig": {
																										"textColor": ""
																									},
																									"fragmentFields": [
																									],
																									"indexed": true
																								},
																								"type": "Fragment"
																							}
																						],
																						"type": "FragmentDropZone"
																					}
																				],
																				"type": "Fragment"
																			}
																		],
																		"type": "Column"
																	}
																],
																"type": "Row"
															},
															{
																"definition": {
																	"fragmentStyle": {
																		"borderWidth": "0",
																		"maxWidth": "1500px",
																		"textAlign": "",
																		"width": "100%"
																	},
																	"indexed": true,
																	"layout": {
																		"borderWidth": 0,
																		"marginBottom": 0,
																		"marginLeft": 0,
																		"marginRight": 0,
																		"marginTop": 0,
																		"paddingBottom": 0,
																		"paddingLeft": 0,
																		"paddingRight": 0,
																		"paddingTop": 0,
																		"widthType": "Fluid"
																	}
																},
																"pageElements": [
																	{
																		"definition": {
																			"fragment": {
																				"key": "section"
																			},
																			"fragmentConfig": {
																				"sectionId": "primary"
																			},
																			"fragmentFields": [
																			],
																			"indexed": true
																		},
																		"pageElements": [
																			{
																				"pageElements": [
																					{
																						"definition": {
																							"widgetInstance": {
																								"widgetConfig": {
																									"properties": "route=applications-table"
																								},
																								"widgetName": "[$CLIENT_EXTENSION_ENTRY_ID:RAYLIFEAGENTPORTAL$]"
																							}
																						},
																						"type": "Widget"
																					}
																				],
																				"type": "FragmentDropZone"
																			}
																		],
																		"type": "Fragment"
																	}
																],
																"type": "Section"
															}
														],
														"type": "Section"
													}
												],
												"type": "FragmentDropZone"
											},
											{
												"pageElements": [
													{
														"definition": {
															"fragmentStyle": {
																"borderWidth": "0",
																"paddingBottom": "4",
																"paddingTop": "4",
																"textAlign": ""
															},
															"indexed": true,
															"layout": {
																"align": "Center",
																"borderWidth": 0,
																"contentDisplay": "FlexColumn",
																"marginBottom": 0,
																"marginLeft": 0,
																"marginRight": 0,
																"marginTop": 0,
																"paddingBottom": 2,
																"paddingLeft": 0,
																"paddingRight": 0,
																"paddingTop": 2,
																"widthType": "Fluid"
															}
														},
														"pageElements": [
															{
																"definition": {
																	"fragmentStyle": {
																		"marginBottom": "4",
																		"maxWidth": "1500px",
																		"textAlign": "",
																		"width": "100%"
																	},
																	"gutters": true,
																	"indexed": true,
																	"modulesPerRow": 2,
																	"numberOfColumns": 2,
																	"reverseOrder": false,
																	"rowViewports": [
																		{
																			"id": "landscapeMobile",
																			"rowViewportDefinition": {
																				"modulesPerRow": 1
																			}
																		},
																		{
																			"id": "portraitMobile",
																			"rowViewportDefinition": {
																			}
																		},
																		{
																			"id": "tablet",
																			"rowViewportDefinition": {
																				"modulesPerRow": 1
																			}
																		}
																	],
																	"verticalAlignment": "top"
																},
																"pageElements": [
																	{
																		"definition": {
																			"columnViewports": [
																				{
																					"columnViewportDefinition": {
																						"size": 12
																					},
																					"id": "landscapeMobile"
																				},
																				{
																					"columnViewportDefinition": {
																					},
																					"id": "portraitMobile"
																				},
																				{
																					"columnViewportDefinition": {
																						"size": 12
																					},
																					"id": "tablet"
																				}
																			],
																			"size": 8
																		},
																		"pageElements": [
																			{
																				"definition": {
																					"fragmentViewports": [
																						{
																							"fragmentViewportStyle": {
																								"marginBottom": "4"
																							},
																							"id": "tablet"
																						}
																					],
																					"gutters": true,
																					"indexed": true,
																					"modulesPerRow": 2,
																					"numberOfColumns": 2,
																					"reverseOrder": false,
																					"rowViewports": [
																						{
																							"id": "landscapeMobile",
																							"rowViewportDefinition": {
																								"modulesPerRow": 1
																							}
																						},
																						{
																							"id": "portraitMobile",
																							"rowViewportDefinition": {
																							}
																						},
																						{
																							"id": "tablet",
																							"rowViewportDefinition": {
																							}
																						}
																					],
																					"verticalAlignment": "top"
																				},
																				"pageElements": [
																					{
																						"definition": {
																							"columnViewports": [
																								{
																									"columnViewportDefinition": {
																										"size": 12
																									},
																									"id": "landscapeMobile"
																								},
																								{
																									"columnViewportDefinition": {
																									},
																									"id": "portraitMobile"
																								},
																								{
																									"columnViewportDefinition": {
																									},
																									"id": "tablet"
																								}
																							],
																							"size": 6
																						},
																						"pageElements": [
																							{
																								"definition": {
																									"fragment": {
																										"key": "section"
																									},
																									"fragmentConfig": {
																										"sectionId": "primary"
																									},
																									"fragmentFields": [
																									],
																									"indexed": true
																								},
																								"pageElements": [
																									{
																										"pageElements": [
																											{
																												"definition": {
																													"fragment": {
																														"key": "fake-content"
																													},
																													"fragmentConfig": {
																														"fakeContentId": "fake content",
																														"height": "341px"
																													},
																													"fragmentFields": [
																													],
																													"fragmentViewports": [
																														{
																															"fragmentViewportStyle": {
																																"marginBottom": "4"
																															},
																															"id": "landscapeMobile"
																														}
																													],
																													"indexed": true
																												},
																												"type": "Fragment"
																											}
																										],
																										"type": "FragmentDropZone"
																									}
																								],
																								"type": "Fragment"
																							}
																						],
																						"type": "Column"
																					},
																					{
																						"definition": {
																							"columnViewports": [
																								{
																									"columnViewportDefinition": {
																										"size": 12
																									},
																									"id": "landscapeMobile"
																								},
																								{
																									"columnViewportDefinition": {
																									},
																									"id": "portraitMobile"
																								},
																								{
																									"columnViewportDefinition": {
																									},
																									"id": "tablet"
																								}
																							],
																							"size": 6
																						},
																						"pageElements": [
																							{
																								"definition": {
																									"fragment": {
																										"key": "section"
																									},
																									"fragmentConfig": {
																										"sectionId": "primary"
																									},
																									"fragmentFields": [
																									],
																									"indexed": true
																								},
																								"pageElements": [
																									{
																										"pageElements": [
																											{
																												"definition": {
																													"fragment": {
																														"key": "fake-content"
																													},
																													"fragmentConfig": {
																														"fakeContentId": "fake content",
																														"height": "341px"
																													},
																													"fragmentFields": [
																													],
																													"indexed": true
																												},
																												"type": "Fragment"
																											}
																										],
																										"type": "FragmentDropZone"
																									}
																								],
																								"type": "Fragment"
																							}
																						],
																						"type": "Column"
																					}
																				],
																				"type": "Row"
																			}
																		],
																		"type": "Column"
																	},
																	{
																		"definition": {
																			"columnViewports": [
																				{
																					"columnViewportDefinition": {
																						"size": 12
																					},
																					"id": "landscapeMobile"
																				},
																				{
																					"columnViewportDefinition": {
																					},
																					"id": "portraitMobile"
																				},
																				{
																					"columnViewportDefinition": {
																						"size": 12
																					},
																					"id": "tablet"
																				}
																			],
																			"size": 4
																		},
																		"pageElements": [
																			{
																				"definition": {
																					"fragment": {
																						"key": "section"
																					},
																					"fragmentConfig": {
																						"sectionId": "primary"
																					},
																					"fragmentFields": [
																					],
																					"indexed": true
																				},
																				"pageElements": [
																					{
																						"pageElements": [
																							{
																								"definition": {
																									"fragment": {
																										"key": "fake-content"
																									},
																									"fragmentConfig": {
																										"fakeContentId": "fake content",
																										"height": "341px"
																									},
																									"fragmentFields": [
																									],
																									"indexed": true
																								},
																								"type": "Fragment"
																							}
																						],
																						"type": "FragmentDropZone"
																					}
																				],
																				"type": "Fragment"
																			}
																		],
																		"type": "Column"
																	}
																],
																"type": "Row"
															},
															{
																"definition": {
																	"fragmentStyle": {
																		"borderWidth": "0",
																		"maxWidth": "1500px",
																		"textAlign": "",
																		"width": "100%"
																	},
																	"indexed": true,
																	"layout": {
																		"borderWidth": 0,
																		"marginBottom": 0,
																		"marginLeft": 0,
																		"marginRight": 0,
																		"marginTop": 0,
																		"paddingBottom": 0,
																		"paddingLeft": 0,
																		"paddingRight": 0,
																		"paddingTop": 0,
																		"widthType": "Fluid"
																	}
																},
																"pageElements": [
																	{
																		"definition": {
																			"fragment": {
																				"key": "section"
																			},
																			"fragmentConfig": {
																				"sectionId": "primary"
																			},
																			"fragmentFields": [
																			],
																			"indexed": true
																		},
																		"pageElements": [
																			{
																				"pageElements": [
																					{
																						"definition": {
																							"fragment": {
																								"key": "fake-content"
																							},
																							"fragmentConfig": {
																								"fakeContentId": "fake content",
																								"height": "915px"
																							},
																							"fragmentFields": [
																							],
																							"indexed": true
																						},
																						"type": "Fragment"
																					}
																				],
																				"type": "FragmentDropZone"
																			}
																		],
																		"type": "Fragment"
																	}
																],
																"type": "Section"
															}
														],
														"type": "Section"
													}
												],
												"type": "FragmentDropZone"
											},
											{
												"pageElements": [
													{
														"definition": {
															"fragmentStyle": {
																"borderWidth": "0",
																"paddingBottom": "4",
																"paddingTop": "4",
																"textAlign": ""
															},
															"indexed": true,
															"layout": {
																"align": "Center",
																"borderWidth": 0,
																"contentDisplay": "FlexColumn",
																"marginBottom": 0,
																"marginLeft": 0,
																"marginRight": 0,
																"marginTop": 0,
																"paddingBottom": 2,
																"paddingLeft": 0,
																"paddingRight": 0,
																"paddingTop": 2,
																"widthType": "Fluid"
															}
														},
														"pageElements": [
															{
																"definition": {
																	"fragmentStyle": {
																		"marginBottom": "4",
																		"maxWidth": "1500px",
																		"textAlign": "",
																		"width": "100%"
																	},
																	"gutters": true,
																	"indexed": true,
																	"modulesPerRow": 2,
																	"numberOfColumns": 2,
																	"reverseOrder": false,
																	"rowViewports": [
																		{
																			"id": "landscapeMobile",
																			"rowViewportDefinition": {
																				"modulesPerRow": 1
																			}
																		},
																		{
																			"id": "portraitMobile",
																			"rowViewportDefinition": {
																			}
																		},
																		{
																			"id": "tablet",
																			"rowViewportDefinition": {
																				"modulesPerRow": 1
																			}
																		}
																	],
																	"verticalAlignment": "top"
																},
																"pageElements": [
																	{
																		"definition": {
																			"columnViewports": [
																				{
																					"columnViewportDefinition": {
																						"size": 12
																					},
																					"id": "landscapeMobile"
																				},
																				{
																					"columnViewportDefinition": {
																					},
																					"id": "portraitMobile"
																				},
																				{
																					"columnViewportDefinition": {
																						"size": 12
																					},
																					"id": "tablet"
																				}
																			],
																			"size": 8
																		},
																		"pageElements": [
																			{
																				"definition": {
																					"fragmentViewports": [
																						{
																							"fragmentViewportStyle": {
																								"marginBottom": "4"
																							},
																							"id": "tablet"
																						}
																					],
																					"gutters": true,
																					"indexed": true,
																					"modulesPerRow": 2,
																					"numberOfColumns": 2,
																					"reverseOrder": false,
																					"rowViewports": [
																						{
																							"id": "landscapeMobile",
																							"rowViewportDefinition": {
																								"modulesPerRow": 1
																							}
																						},
																						{
																							"id": "portraitMobile",
																							"rowViewportDefinition": {
																							}
																						},
																						{
																							"id": "tablet",
																							"rowViewportDefinition": {
																							}
																						}
																					],
																					"verticalAlignment": "top"
																				},
																				"pageElements": [
																					{
																						"definition": {
																							"columnViewports": [
																								{
																									"columnViewportDefinition": {
																										"size": 12
																									},
																									"id": "landscapeMobile"
																								},
																								{
																									"columnViewportDefinition": {
																									},
																									"id": "portraitMobile"
																								},
																								{
																									"columnViewportDefinition": {
																									},
																									"id": "tablet"
																								}
																							],
																							"size": 6
																						},
																						"pageElements": [
																							{
																								"definition": {
																									"fragment": {
																										"key": "section"
																									},
																									"fragmentConfig": {
																										"sectionId": "primary"
																									},
																									"fragmentFields": [
																									],
																									"indexed": true
																								},
																								"pageElements": [
																									{
																										"pageElements": [
																											{
																												"definition": {
																													"fragment": {
																														"key": "fake-content"
																													},
																													"fragmentConfig": {
																														"fakeContentId": "fake content",
																														"height": "341px"
																													},
																													"fragmentFields": [
																													],
																													"fragmentViewports": [
																														{
																															"fragmentViewportStyle": {
																																"marginBottom": "4"
																															},
																															"id": "landscapeMobile"
																														}
																													],
																													"indexed": true
																												},
																												"type": "Fragment"
																											}
																										],
																										"type": "FragmentDropZone"
																									}
																								],
																								"type": "Fragment"
																							}
																						],
																						"type": "Column"
																					},
																					{
																						"definition": {
																							"columnViewports": [
																								{
																									"columnViewportDefinition": {
																										"size": 12
																									},
																									"id": "landscapeMobile"
																								},
																								{
																									"columnViewportDefinition": {
																									},
																									"id": "portraitMobile"
																								},
																								{
																									"columnViewportDefinition": {
																									},
																									"id": "tablet"
																								}
																							],
																							"size": 6
																						},
																						"pageElements": [
																							{
																								"definition": {
																									"fragment": {
																										"key": "section"
																									},
																									"fragmentConfig": {
																										"sectionId": "primary"
																									},
																									"fragmentFields": [
																									],
																									"indexed": true
																								},
																								"pageElements": [
																									{
																										"pageElements": [
																											{
																												"definition": {
																													"fragment": {
																														"key": "fake-content"
																													},
																													"fragmentConfig": {
																														"fakeContentId": "fake content",
																														"height": "341px"
																													},
																													"fragmentFields": [
																													],
																													"indexed": true
																												},
																												"type": "Fragment"
																											}
																										],
																										"type": "FragmentDropZone"
																									}
																								],
																								"type": "Fragment"
																							}
																						],
																						"type": "Column"
																					}
																				],
																				"type": "Row"
																			}
																		],
																		"type": "Column"
																	},
																	{
																		"definition": {
																			"columnViewports": [
																				{
																					"columnViewportDefinition": {
																						"size": 12
																					},
																					"id": "landscapeMobile"
																				},
																				{
																					"columnViewportDefinition": {
																					},
																					"id": "portraitMobile"
																				},
																				{
																					"columnViewportDefinition": {
																						"size": 12
																					},
																					"id": "tablet"
																				}
																			],
																			"size": 4
																		},
																		"pageElements": [
																			{
																				"definition": {
																					"fragment": {
																						"key": "section"
																					},
																					"fragmentConfig": {
																						"sectionId": "primary"
																					},
																					"fragmentFields": [
																					],
																					"indexed": true
																				},
																				"pageElements": [
																					{
																						"pageElements": [
																							{
																								"definition": {
																									"fragment": {
																										"key": "fake-content"
																									},
																									"fragmentConfig": {
																										"fakeContentId": "fake content",
																										"height": "341px"
																									},
																									"fragmentFields": [
																									],
																									"indexed": true
																								},
																								"type": "Fragment"
																							}
																						],
																						"type": "FragmentDropZone"
																					}
																				],
																				"type": "Fragment"
																			}
																		],
																		"type": "Column"
																	}
																],
																"type": "Row"
															},
															{
																"definition": {
																	"fragmentStyle": {
																		"borderWidth": "0",
																		"maxWidth": "1500px",
																		"textAlign": "",
																		"width": "100%"
																	},
																	"indexed": true,
																	"layout": {
																		"borderWidth": 0,
																		"marginBottom": 0,
																		"marginLeft": 0,
																		"marginRight": 0,
																		"marginTop": 0,
																		"paddingBottom": 0,
																		"paddingLeft": 0,
																		"paddingRight": 0,
																		"paddingTop": 0,
																		"widthType": "Fluid"
																	}
																},
																"pageElements": [
																	{
																		"definition": {
																			"fragment": {
																				"key": "section"
																			},
																			"fragmentConfig": {
																				"sectionId": "primary"
																			},
																			"fragmentFields": [
																			],
																			"indexed": true
																		},
																		"pageElements": [
																			{
																				"pageElements": [
																					{
																						"definition": {
																							"fragment": {
																								"key": "fake-content"
																							},
																							"fragmentConfig": {
																								"fakeContentId": "fake content",
																								"height": "915px"
																							},
																							"fragmentFields": [
																							],
																							"indexed": true
																						},
																						"type": "Fragment"
																					}
																				],
																				"type": "FragmentDropZone"
																			}
																		],
																		"type": "Fragment"
																	}
																],
																"type": "Section"
															}
														],
														"type": "Section"
													}
												],
												"type": "FragmentDropZone"
											},
											{
												"pageElements": [
													{
														"definition": {
															"fragmentStyle": {
																"borderWidth": "0",
																"paddingBottom": "4",
																"paddingTop": "4",
																"textAlign": ""
															},
															"indexed": true,
															"layout": {
																"align": "Center",
																"borderWidth": 0,
																"contentDisplay": "FlexColumn",
																"marginBottom": 0,
																"marginLeft": 0,
																"marginRight": 0,
																"marginTop": 0,
																"paddingBottom": 2,
																"paddingLeft": 0,
																"paddingRight": 0,
																"paddingTop": 2,
																"widthType": "Fluid"
															}
														},
														"pageElements": [
															{
																"definition": {
																	"fragmentStyle": {
																		"marginBottom": "4",
																		"maxWidth": "1500px",
																		"textAlign": "",
																		"width": "100%"
																	},
																	"gutters": true,
																	"indexed": true,
																	"modulesPerRow": 2,
																	"numberOfColumns": 2,
																	"reverseOrder": false,
																	"rowViewports": [
																		{
																			"id": "landscapeMobile",
																			"rowViewportDefinition": {
																				"modulesPerRow": 1
																			}
																		},
																		{
																			"id": "portraitMobile",
																			"rowViewportDefinition": {
																			}
																		},
																		{
																			"id": "tablet",
																			"rowViewportDefinition": {
																				"modulesPerRow": 1
																			}
																		}
																	],
																	"verticalAlignment": "top"
																},
																"pageElements": [
																	{
																		"definition": {
																			"columnViewports": [
																				{
																					"columnViewportDefinition": {
																						"size": 12
																					},
																					"id": "landscapeMobile"
																				},
																				{
																					"columnViewportDefinition": {
																					},
																					"id": "portraitMobile"
																				},
																				{
																					"columnViewportDefinition": {
																						"size": 12
																					},
																					"id": "tablet"
																				}
																			],
																			"size": 8
																		},
																		"pageElements": [
																			{
																				"definition": {
																					"fragmentViewports": [
																						{
																							"fragmentViewportStyle": {
																								"marginBottom": "4"
																							},
																							"id": "tablet"
																						}
																					],
																					"gutters": true,
																					"indexed": true,
																					"modulesPerRow": 2,
																					"numberOfColumns": 2,
																					"reverseOrder": false,
																					"rowViewports": [
																						{
																							"id": "landscapeMobile",
																							"rowViewportDefinition": {
																								"modulesPerRow": 1
																							}
																						},
																						{
																							"id": "portraitMobile",
																							"rowViewportDefinition": {
																							}
																						},
																						{
																							"id": "tablet",
																							"rowViewportDefinition": {
																							}
																						}
																					],
																					"verticalAlignment": "top"
																				},
																				"pageElements": [
																					{
																						"definition": {
																							"columnViewports": [
																								{
																									"columnViewportDefinition": {
																										"size": 12
																									},
																									"id": "landscapeMobile"
																								},
																								{
																									"columnViewportDefinition": {
																									},
																									"id": "portraitMobile"
																								},
																								{
																									"columnViewportDefinition": {
																									},
																									"id": "tablet"
																								}
																							],
																							"size": 6
																						},
																						"pageElements": [
																							{
																								"definition": {
																									"fragment": {
																										"key": "section"
																									},
																									"fragmentConfig": {
																										"sectionId": "primary"
																									},
																									"fragmentFields": [
																									],
																									"indexed": true
																								},
																								"pageElements": [
																									{
																										"pageElements": [
																											{
																												"definition": {
																													"fragment": {
																														"key": "fake-content"
																													},
																													"fragmentConfig": {
																														"fakeContentId": "fake content",
																														"height": "341px"
																													},
																													"fragmentFields": [
																													],
																													"fragmentViewports": [
																														{
																															"fragmentViewportStyle": {
																																"marginBottom": "4"
																															},
																															"id": "landscapeMobile"
																														}
																													],
																													"indexed": true
																												},
																												"type": "Fragment"
																											}
																										],
																										"type": "FragmentDropZone"
																									}
																								],
																								"type": "Fragment"
																							}
																						],
																						"type": "Column"
																					},
																					{
																						"definition": {
																							"columnViewports": [
																								{
																									"columnViewportDefinition": {
																										"size": 12
																									},
																									"id": "landscapeMobile"
																								},
																								{
																									"columnViewportDefinition": {
																									},
																									"id": "portraitMobile"
																								},
																								{
																									"columnViewportDefinition": {
																									},
																									"id": "tablet"
																								}
																							],
																							"size": 6
																						},
																						"pageElements": [
																							{
																								"definition": {
																									"fragment": {
																										"key": "section"
																									},
																									"fragmentConfig": {
																										"sectionId": "primary"
																									},
																									"fragmentFields": [
																									],
																									"indexed": true
																								},
																								"pageElements": [
																									{
																										"pageElements": [
																											{
																												"definition": {
																													"fragment": {
																														"key": "fake-content"
																													},
																													"fragmentConfig": {
																														"fakeContentId": "fake content",
																														"height": "341px"
																													},
																													"fragmentFields": [
																													],
																													"indexed": true
																												},
																												"type": "Fragment"
																											}
																										],
																										"type": "FragmentDropZone"
																									}
																								],
																								"type": "Fragment"
																							}
																						],
																						"type": "Column"
																					}
																				],
																				"type": "Row"
																			}
																		],
																		"type": "Column"
																	},
																	{
																		"definition": {
																			"columnViewports": [
																				{
																					"columnViewportDefinition": {
																						"size": 12
																					},
																					"id": "landscapeMobile"
																				},
																				{
																					"columnViewportDefinition": {
																					},
																					"id": "portraitMobile"
																				},
																				{
																					"columnViewportDefinition": {
																						"size": 12
																					},
																					"id": "tablet"
																				}
																			],
																			"size": 4
																		},
																		"pageElements": [
																			{
																				"definition": {
																					"fragment": {
																						"key": "section"
																					},
																					"fragmentConfig": {
																						"sectionId": "primary"
																					},
																					"fragmentFields": [
																					],
																					"indexed": true
																				},
																				"pageElements": [
																					{
																						"pageElements": [
																							{
																								"definition": {
																									"fragment": {
																										"key": "fake-content"
																									},
																									"fragmentConfig": {
																										"fakeContentId": "fake content",
																										"height": "341px"
																									},
																									"fragmentFields": [
																									],
																									"indexed": true
																								},
																								"type": "Fragment"
																							}
																						],
																						"type": "FragmentDropZone"
																					}
																				],
																				"type": "Fragment"
																			}
																		],
																		"type": "Column"
																	}
																],
																"type": "Row"
															},
															{
																"definition": {
																	"fragmentStyle": {
																		"borderWidth": "0",
																		"maxWidth": "1500px",
																		"textAlign": "",
																		"width": "100%"
																	},
																	"indexed": true,
																	"layout": {
																		"borderWidth": 0,
																		"marginBottom": 0,
																		"marginLeft": 0,
																		"marginRight": 0,
																		"marginTop": 0,
																		"paddingBottom": 0,
																		"paddingLeft": 0,
																		"paddingRight": 0,
																		"paddingTop": 0,
																		"widthType": "Fluid"
																	}
																},
																"pageElements": [
																	{
																		"definition": {
																			"fragment": {
																				"key": "section"
																			},
																			"fragmentConfig": {
																				"sectionId": "primary"
																			},
																			"fragmentFields": [
																			],
																			"indexed": true
																		},
																		"pageElements": [
																			{
																				"pageElements": [
																					{
																						"definition": {
																							"fragment": {
																								"key": "fake-content"
																							},
																							"fragmentConfig": {
																								"fakeContentId": "fake content",
																								"height": "915px"
																							},
																							"fragmentFields": [
																							],
																							"indexed": true
																						},
																						"type": "Fragment"
																					}
																				],
																				"type": "FragmentDropZone"
																			}
																		],
																		"type": "Fragment"
																	}
																],
																"type": "Section"
															}
														],
														"type": "Section"
													}
												],
												"type": "FragmentDropZone"
											}
										],
										"type": "Fragment"
									},
									{
										"definition": {
											"widgetInstance": {
												"widgetConfig": {
													"properties": "route=applications"
												},
												"widgetName": "[$CLIENT_EXTENSION_ENTRY_ID:RAYLIFEAGENTPORTAL$]"
											}
										},
										"type": "Widget"
									}
								],
								"type": "FragmentDropZone"
							}
						],
						"type": "Fragment"
					}
				],
				"type": "Section"
			}
		],
		"type": "Root"
	},
	"settings": {
		"masterPage": {
			"key": "public"
		}
	}
}