{
	"description_i18n": {
		"en_US": "hide-by-exact-term-match-description"
	},
	"elementDefinition": {
		"category": "hide",
		"configuration": {
			"queryConfiguration": {
				"queryEntries": [
					{
						"clauses": [
							{
								"context": "query",
								"occur": "filter",
								"query": {
									"bool": {
										"must_not": [
											{
												"term": {
													"${configuration.field}": {
														"value": "${configuration.value}"
													}
												}
											}
										]
									}
								}
							}
						]
					}
				]
			}
		},
		"icon": "hidden",
		"uiConfiguration": {
			"fieldSets": [
				{
					"fields": [
						{
							"label": "Field",
							"name": "field",
							"type": "fieldMapping"
						},
						{
							"label": "Value",
							"name": "value",
							"type": "text"
						}
					]
				}
			]
		}
	},
	"externalReferenceCode": "HIDE_BY_EXACT_TERM_MATCH",
	"title_i18n": {
		"en_US": "hide-by-exact-term-match"
	}
}