{
	"description_i18n": {
		"en_US": "rescore-by-text-embedding-description"
	},
	"elementDefinition": {
		"category": "semantic search",
		"configuration": {
			"queryConfiguration": {
				"queryEntries": [
					{
						"condition": {
							"exists": {
								"parameterName": "keywords"
							}
						},
						"rescores": [
							{
								"query": {
									"script_score": {
										"boost": "${configuration.boost}",
										"min_score": "${configuration.min_score}",
										"query": {
											"bool": {
												"filter": [
													{
														"exists": {
															"field": "text_embedding_${ml.text_embeddings.vector_dimensions}_${context.language_id}"
														}
													}
												],
												"must": [
													{
														"match_all": {
														}
													}
												]
											}
										},
										"script": {
											"params": {
												"query_vector": "${ml.text_embeddings.keywords_embedding}"
											},
											"source": "${configuration.vector_field_function}(params.query_vector, 'text_embedding_${ml.text_embeddings.vector_dimensions}_${context.language_id}') + 1"
										}
									}
								},
								"queryWeight": "${configuration.query_weight}",
								"rescoreQueryWeight": "${configuration.rescore_query_weight}",
								"scoreMode": "${configuration.score_mode}",
								"windowSize": "${configuration.window_size}"
							}
						]
					}
				]
			}
		},
		"icon": "custom-field",
		"uiConfiguration": {
			"fieldSets": [
				{
					"fields": [
						{
							"defaultValue": 10,
							"label": "Boost",
							"name": "boost",
							"type": "number",
							"typeOptions": {
								"min": 0
							}
						},
						{
							"defaultValue": "cosineSimilarity",
							"helpText": "Specify the vector function for measuring similarity between the text embeddings of the search keywords and target documents. Check the model's documentation for suitability.",
							"label": "Vector Field Function",
							"name": "vector_field_function",
							"type": "select",
							"typeOptions": {
								"nullable": false,
								"options": [
									{
										"label": "Cosine Similarity",
										"value": "cosineSimilarity"
									},
									{
										"label": "Dot Product",
										"value": "dotProduct"
									}
								]
							}
						},
						{
							"defaultValue": 1,
							"helpText": "Set the minimum score for a result to be rescored.",
							"label": "Min Score",
							"name": "min_score",
							"type": "number",
							"typeOptions": {
								"min": 0
							}
						},
						{
							"defaultValue": 0.01,
							"helpText": "Set the weight of the original query to determine its importance in the final score calculation",
							"label": "Query Weight",
							"name": "query_weight",
							"type": "slider",
							"typeOptions": {
								"min": 0.01,
								"step": 0.1
							}
						},
						{
							"defaultValue": 10,
							"helpText": "Set the weight of the rescore query to determine its importance in the final score calculation.",
							"label": "Rescore Query Weight",
							"name": "rescore_query_weight",
							"type": "slider",
							"typeOptions": {
								"min": 0.01,
								"step": 0.1
							}
						},
						{
							"defaultValue": "avg",
							"helpText": "Choose how the original and rescore query scores are combined when calculating the final score.",
							"label": "Score Mode",
							"name": "score_mode",
							"type": "select",
							"typeOptions": {
								"nullable": false,
								"options": [
									{
										"label": "Average",
										"value": "avg"
									},
									{
										"label": "Max",
										"value": "max"
									},
									{
										"label": "Min",
										"value": "min"
									},
									{
										"label": "Multiply",
										"value": "multiply"
									},
									{
										"label": "Total",
										"value": "total"
									}
								]
							}
						},
						{
							"defaultValue": 50,
							"helpText": "Set the number of top results from the original query to rescore.",
							"label": "Rescorer Window Size",
							"name": "window_size",
							"type": "number",
							"typeOptions": {
								"min": 1
							}
						}
					]
				}
			]
		}
	},
	"externalReferenceCode": "RESCORE_BY_TEXT_EMBEDDING",
	"title_i18n": {
		"en_US": "rescore-by-text-embedding"
	},
	"type": 0
}