[
	{
		"description": "This is a description.",
		"name": "customElement",
		"properties": [
			{
				"name": "description",
				"type": "CETProperty.Type.String"
			},
			{
				"name": "name",
				"type": "CETProperty.Type.String"
			},
			{
				"default": "https://www.liferay.com",
				"name": "sourceCodeURL",
				"type": "CETProperty.Type.String"
			},
			{
				"name": "type",
				"type": "CETProperty.Type.String"
			},
			{
				"default": "",
				"name": "cssURLs",
				"type": "CETProperty.Type.URLList"
			},
			{
				"default": "",
				"name": "friendlyURLMapping",
				"type": "CETProperty.Type.String"
			},
			{
				"default": "",
				"name": "htmlElementName",
				"type": "CETProperty.Type.String"
			},
			{
				"default": "",
				"name": "portletCategoryName",
				"type": "CETProperty.Type.String"
			},
			{
				"default": "",
				"name": "urls",
				"type": "CETProperty.Type.URLList"
			},
			{
				"default": "false",
				"name": "instanceable",
				"type": "CETProperty.Type.Boolean"
			},
			{
				"default": "false",
				"name": "useESM",
				"type": "CETProperty.Type.Boolean"
			}
		]
	},
	{
		"description": "This is a description.",
		"name": "globalCSS",
		"properties": [
			{
				"name": "description",
				"type": "CETProperty.Type.String"
			},
			{
				"name": "name",
				"type": "CETProperty.Type.String"
			},
			{
				"default": "https://www.liferay.com",
				"name": "sourceCodeURL",
				"type": "CETProperty.Type.String"
			},
			{
				"name": "type",
				"type": "CETProperty.Type.String"
			},
			{
				"default": "",
				"name": "url",
				"type": "CETProperty.Type.URL"
			}
		]
	},
	{
		"description": "This is a description.",
		"name": "globalJS",
		"properties": [
			{
				"name": "description",
				"type": "CETProperty.Type.String"
			},
			{
				"name": "name",
				"type": "CETProperty.Type.String"
			},
			{
				"default": "https://www.liferay.com",
				"name": "sourceCodeURL",
				"type": "CETProperty.Type.String"
			},
			{
				"name": "type",
				"type": "CETProperty.Type.String"
			},
			{
				"default": "",
				"name": "url",
				"type": "CETProperty.Type.URL"
			}
		]
	},
	{
		"description": "This is a description.",
		"name": "iframe",
		"properties": [
			{
				"name": "description",
				"type": "CETProperty.Type.String"
			},
			{
				"name": "name",
				"type": "CETProperty.Type.String"
			},
			{
				"default": "https://www.liferay.com",
				"name": "sourceCodeURL",
				"type": "CETProperty.Type.String"
			},
			{
				"name": "type",
				"type": "CETProperty.Type.String"
			},
			{
				"default": "",
				"name": "friendlyURLMapping",
				"type": "CETProperty.Type.String"
			},
			{
				"default": "",
				"name": "portletCategoryName",
				"type": "CETProperty.Type.String"
			},
			{
				"default": "",
				"name": "url",
				"type": "CETProperty.Type.URL"
			},
			{
				"default": "false",
				"name": "instanceable",
				"type": "CETProperty.Type.Boolean"
			}
		]
	},
	{
		"description": "This is a description.",
		"name": "staticContent",
		"properties": [
			{
				"name": "description",
				"type": "CETProperty.Type.String"
			},
			{
				"name": "name",
				"type": "CETProperty.Type.String"
			},
			{
				"default": "https://www.liferay.com",
				"name": "sourceCodeURL",
				"type": "CETProperty.Type.String"
			},
			{
				"name": "type",
				"type": "CETProperty.Type.String"
			},
			{
				"default": "",
				"name": "url",
				"type": "CETProperty.Type.URL"
			}
		]
	},
	{
		"description": "This is a description.",
		"name": "themeCSS",
		"properties": [
			{
				"name": "description",
				"type": "CETProperty.Type.String"
			},
			{
				"name": "name",
				"type": "CETProperty.Type.String"
			},
			{
				"default": "https://www.liferay.com",
				"name": "sourceCodeURL",
				"type": "CETProperty.Type.String"
			},
			{
				"name": "type",
				"type": "CETProperty.Type.String"
			},
			{
				"default": "",
				"name": "clayURL",
				"type": "CETProperty.Type.URL"
			},
			{
				"default": "",
				"name": "mainURL",
				"type": "CETProperty.Type.URL"
			}
		]
	},
	{
		"description": "This is a description.",
		"name": "themeFavicon",
		"properties": [
			{
				"name": "description",
				"type": "CETProperty.Type.String"
			},
			{
				"name": "name",
				"type": "CETProperty.Type.String"
			},
			{
				"default": "https://www.liferay.com",
				"name": "sourceCodeURL",
				"type": "CETProperty.Type.String"
			},
			{
				"name": "type",
				"type": "CETProperty.Type.String"
			},
			{
				"default": "",
				"name": "url",
				"type": "CETProperty.Type.URL"
			}
		]
	},
	{
		"description": "This is a description.",
		"name": "themeJS",
		"properties": [
			{
				"name": "description",
				"type": "CETProperty.Type.String"
			},
			{
				"name": "name",
				"type": "CETProperty.Type.String"
			},
			{
				"default": "https://www.liferay.com",
				"name": "sourceCodeURL",
				"type": "CETProperty.Type.String"
			},
			{
				"name": "type",
				"type": "CETProperty.Type.String"
			},
			{
				"default": "",
				"name": "url",
				"type": "CETProperty.Type.URL"
			}
		]
	},
	{
		"description": "This is a description.",
		"name": "themeSpritemap",
		"properties": [
			{
				"name": "description",
				"type": "CETProperty.Type.String"
			},
			{
				"name": "name",
				"type": "CETProperty.Type.String"
			},
			{
				"default": "https://www.liferay.com",
				"name": "sourceCodeURL",
				"type": "CETProperty.Type.String"
			},
			{
				"name": "type",
				"type": "CETProperty.Type.String"
			},
			{
				"default": "",
				"name": "url",
				"type": "CETProperty.Type.URL"
			},
			{
				"default": "false",
				"name": "enableSVG4Everybody",
				"type": "CETProperty.Type.Boolean"
			}
		]
	}
]