[
	{
		"actionIds": [
			"VIEW"
		],
		"resourceName": "com.liferay.journal.model.JournalFolder",
		"roleName": "User",
		"scope": "1"
	},
	{
		"actionIds": [
			"SUBSCRIBE",
			"VIEW"
		],
		"resourceName": "com_liferay_asset_publisher_web_portlet_AssetPublisherPortlet",
		"roleName": "User",
		"scope": "1"
	},
	{
		"actionIds": [
			"VIEW"
		],
		"resourceName": "com.liferay.list.type.model.ListTypeDefinition",
		"roleName": "User",
		"scope": "1"
	},
	{
		"actionIds": [
			"VIEW"
		],
		"primKey": "[$OBJECT_DEFINITION_ID:MDFRequest$]",
		"resourceName": "com.liferay.object.model.ObjectDefinition",
		"roleName": "User",
		"scope": "4"
	},
	{
		"actionIds": [
			"VIEW"
		],
		"resourceName": "com.liferay.portal.kernel.model.Role",
		"roleName": "Channel General Manager",
		"scope": "1"
	},
	{
		"actionIds": [
			"VIEW"
		],
		"resourceName": "com.liferay.portal.kernel.model.Role",
		"roleName": "Channel Account Manager",
		"scope": "1"
	},
	{
		"actionIds": [
			"VIEW"
		],
		"resourceName": "com.liferay.portal.kernel.model.Role",
		"roleName": "Channel Regional Marketing Manager",
		"scope": "1"
	},
	{
		"actionIds": [
			"VIEW"
		],
		"resourceName": "com.liferay.portal.kernel.model.Role",
		"roleName": "Channel Global Marketing Manager",
		"scope": "1"
	},
	{
		"actionIds": [
			"VIEW"
		],
		"resourceName": "com.liferay.portal.kernel.model.Role",
		"roleName": "Channel Finance Manager",
		"scope": "1"
	},
	{
		"actionIds": [
			"VIEW"
		],
		"primKey": "[$OBJECT_DEFINITION_ID:MDFClaim$]",
		"resourceName": "com.liferay.object.model.ObjectDefinition",
		"roleName": "User",
		"scope": "4"
	},
	{
		"actionIds": [
			"DELETE",
			"UPDATE",
			"VIEW"
		],
		"resourceName": "com.liferay.object.model.ObjectDefinition#[$OBJECT_DEFINITION_ID:MDFRequest$]",
		"roleName": "User",
		"scope": "1"
	},
	{
		"actionIds": [
			"ADD_OBJECT_ENTRY"
		],
		"resourceName": "com.liferay.object#[$OBJECT_DEFINITION_ID:MDFRequest$]",
		"roleName": "User",
		"scope": "1"
	},
	{
		"actionIds": [
			"DELETE",
			"UPDATE",
			"VIEW"
		],
		"resourceName": "com.liferay.object.model.ObjectDefinition#[$OBJECT_DEFINITION_ID:Activity$]",
		"roleName": "User",
		"scope": "1"
	},
	{
		"actionIds": [
			"ADD_OBJECT_ENTRY"
		],
		"resourceName": "com.liferay.object#[$OBJECT_DEFINITION_ID:Activity$]",
		"roleName": "User",
		"scope": "1"
	},
	{
		"actionIds": [
			"DELETE",
			"UPDATE",
			"VIEW"
		],
		"resourceName": "com.liferay.object.model.ObjectDefinition#[$OBJECT_DEFINITION_ID:Budget$]",
		"roleName": "User",
		"scope": "1"
	},
	{
		"actionIds": [
			"ADD_OBJECT_ENTRY"
		],
		"resourceName": "com.liferay.object#[$OBJECT_DEFINITION_ID:Budget$]",
		"roleName": "User",
		"scope": "1"
	},
	{
		"actionIds": [
			"VIEW"
		],
		"resourceName": "com.liferay.object.model.ObjectDefinition#[$OBJECT_DEFINITION_ID:CompanyExtender$]",
		"roleName": "User",
		"scope": "1"
	},
	{
		"actionIds": [
			"VIEW"
		],
		"primKey": "[$OBJECT_DEFINITION_ID:MDFClaimActivity$]",
		"resourceName": "com.liferay.object.model.ObjectDefinition",
		"roleName": "User",
		"scope": "4"
	},
	{
		"actionIds": [
			"DELETE",
			"UPDATE",
			"VIEW"
		],
		"resourceName": "com.liferay.object.model.ObjectDefinition#[$OBJECT_DEFINITION_ID:MDFClaimActivity$]",
		"roleName": "User",
		"scope": "1"
	},
	{
		"actionIds": [
			"ADD_OBJECT_ENTRY"
		],
		"resourceName": "com.liferay.object#[$OBJECT_DEFINITION_ID:MDFClaimActivity$]",
		"roleName": "User",
		"scope": "1"
	},
	{
		"actionIds": [
			"DELETE",
			"UPDATE",
			"VIEW"
		],
		"resourceName": "com.liferay.object.model.ObjectDefinition#[$OBJECT_DEFINITION_ID:MDFClaimBudget$]",
		"roleName": "User",
		"scope": "1"
	},
	{
		"actionIds": [
			"ADD_OBJECT_ENTRY"
		],
		"resourceName": "com.liferay.object#[$OBJECT_DEFINITION_ID:MDFClaimBudget$]",
		"roleName": "User",
		"scope": "1"
	},
	{
		"actionIds": [
			"DELETE",
			"UPDATE",
			"VIEW"
		],
		"resourceName": "com.liferay.object.model.ObjectDefinition#[$OBJECT_DEFINITION_ID:MDFClaimDocument$]",
		"roleName": "User",
		"scope": "1"
	},
	{
		"actionIds": [
			"ADD_OBJECT_ENTRY"
		],
		"resourceName": "com.liferay.object#[$OBJECT_DEFINITION_ID:MDFClaimDocument$]",
		"roleName": "User",
		"scope": "1"
	},
	{
		"actionIds": [
			"DELETE",
			"UPDATE",
			"VIEW"
		],
		"resourceName": "com.liferay.object.model.ObjectDefinition#[$OBJECT_DEFINITION_ID:MDFClaim$]",
		"roleName": "User",
		"scope": "1"
	},
	{
		"actionIds": [
			"ADD_OBJECT_ENTRY"
		],
		"resourceName": "com.liferay.object#[$OBJECT_DEFINITION_ID:MDFClaim$]",
		"roleName": "User",
		"scope": "1"
	},
	{
		"actionIds": [
			"VIEW"
		],
		"resourceName": "com.liferay.object.model.ObjectDefinition#[$OBJECT_DEFINITION_ID:MDFListingColumn$]",
		"roleName": "User",
		"scope": "1"
	}
]